{
    "plugin_type": ["converter", "formatter", "processor", "annotator", "segmenter"],
    "plugin_name" : "my_plugin",
    "package_name": "py{{cookiecutter.plugin_type}}s_{{cookiecutter.plugin_name}}",
    "dist_name" : "py{{cookiecutter.plugin_type}}s-{{cookiecutter.plugin_name}}",
    "package_description": "My new {{cookiecutter.plugin_type}}",
    "package_keywords": "",
    "author_name": "Olivier Terrier",
    "author_email": "olivier.terrier@kairntech.com",
    "author_github": "oterrier",
    "package_repo" : "{{cookiecutter.author_github}}/{{cookiecutter.package_name}}",
    "python": {
        "versions": ["3.8"]
    }
}
